hw4
…
View(ChickWeight)

weight0 <- ChickWeight %>%
group_by(Chick) %>%
summarize(averageweight = mean(weight),standard_deviation_weight = sd(weight, na.rm = TRUE))
print(weight0)

## # A tibble: 50 x 3
##    Chick averageweight standard_deviation_weight
##    <ord>         <dbl>                     <dbl>
##  1 18             37                        2.83
##  2 16             49.7                      5.38
##  3 15             60.1                     10.4 
##  4 13             67.8                     16.3 
##  5 9              81.2                     20.6 
##  6 20             78.4                     26.5 
##  7 10             83.1                     28.8 
##  8 8              92                       32.6 
##  9 17             92.5                     32.1 
## 10 19             86.8                     37.5 
## # ... with 40 more rows
…
3.In the complete data set introduce a new variable that measures the current weight difference compared to day 0. Name this variable weightgain and print the first 3 rows of the new data frame.

a<-inner_join(complete,ChickWeight,by='Chick')

mutate(a,weight0=weight[Time==0],weight21=weight[Time==21],weightgain=weight21-weight0)

## # A tibble: 540 x 8
## # Groups:   Chick [45]
##    Chick     n weight  Time Diet  weight0 weight21 weightgain
##    <ord> <int>  <dbl> <dbl> <fct>   <dbl>    <dbl>      <dbl>
##  1 13       12     41     0 1          41       96         55
##  2 13       12     48     2 1          41       96         55
##  3 13       12     53     4 1          41       96         55
##  4 13       12     60     6 1          41       96         55
##  5 13       12     65     8 1          41       96         55
##  6 13       12     67    10 1          41       96         55
##  7 13       12     71    12 1          41       96         55
##  8 13       12     70    14 1          41       96         55
##  9 13       12     71    16 1          41       96         55
## 10 13       12     81    18 1          41       96         55
## # ... with 530 more rows
…
b<-weightgain[order(-weightgain$weightgain),]
b

## # A tibble: 540 x 8
## # Groups:   Chick [45]
##    Chick     n weight  Time Diet  weight0 weight21 weightgain
##    <ord> <int>  <dbl> <dbl> <fct>   <dbl>    <dbl>      <dbl>
##  1 35       12     41     0 3          41      373        332
##  2 35       12     53     2 3          41      373        332
##  3 35       12     64     4 3          41      373        332
##  4 35       12     87     6 3          41      373        332
##  5 35       12    123     8 3          41      373        332
##  6 35       12    158    10 3          41      373        332
##  7 35       12    201    12 3          41      373        332
##  8 35       12    238    14 3          41      373        332
##  9 35       12    287    16 3          41      373        332
## 10 35       12    332    18 3          41      373        332
## # ... with 530 more rows

the largest weight gain is chicken 35 with 332 weightgain on 3 diet per day.the smallest weight gain is chicken 24 with 32 weightgain on 2 diet per day.

6.For the chicks with the least and the most weight at time 0, plot their growth trajectories over time.

5 pts of extra credit: Add to the plot the average growth trajectory for all chicks (calculated as the mean weight for each chick at each time). How do the trajectories compare?

c<-weightgain[order(-weightgain$weight0),]
c

## # A tibble: 540 x 8
## # Groups:   Chick [45]
##    Chick     n weight  Time Diet  weight0 weight21 weightgain
##    <ord> <int>  <dbl> <dbl> <fct>   <dbl>    <dbl>      <dbl>
##  1 19       12     43     0 1          43      157        114
##  2 19       12     48     2 1          43      157        114
##  3 19       12     55     4 1          43      157        114
##  4 19       12     62     6 1          43      157        114
##  5 19       12     65     8 1          43      157        114
##  6 19       12     71    10 1          43      157        114
##  7 19       12     82    12 1          43      157        114
##  8 19       12     88    14 1          43      157        114
##  9 19       12    106    16 1          43      157        114
## 10 19       12    120    18 1          43      157        114
## # ... with 530 more rows

d<-filter(weightgain,Chick==(19  ))
e<-filter(weightgain,Chick==(48  ))
f<-full_join(e,d)

## Joining, by = c("Chick", "n", "weight", "Time", "Diet", "weight0", "weight21", "weightgain")

f

## # A tibble: 24 x 8
## # Groups:   Chick [2]
##    Chick     n weight  Time Diet  weight0 weight21 weightgain
##    <ord> <int>  <dbl> <dbl> <fct>   <dbl>    <dbl>      <dbl>
##  1 48       12     39     0 4          39      322        283
##  2 48       12     50     2 4          39      322        283
##  3 48       12     62     4 4          39      322        283
##  4 48       12     80     6 4          39      322        283
##  5 48       12    104     8 4          39      322        283
##  6 48       12    125    10 4          39      322        283
##  7 48       12    154    12 4          39      322        283
##  8 48       12    170    14 4          39      322        283
##  9 48       12    222    16 4          39      322        283
## 10 48       12    261    18 4          39      322        283
## # ... with 14 more rows
…
